Applied Data Analysis
…
---

### Tokenization 

Tokenization - A token is a meaningful unit of text, most often a word, that we are interested in using for further analysis.

```r
library(tidytext)

text_df %>%
  unnest_tokens(word, text)
```

```
## # A tibble: 20 × 2
##    line word   
##   <int> <chr>  
## 1     1 because
## 2     1 i      
## 3     1 could  
## 4     1 not    
## 5     1 stop   
## # ℹ 15 more rows
```
…
### Clean the stop-words 

```r
data(stop_words)

tidy_books <- tidy_books %>%
  anti_join(stop_words, by = join_by(word))

tidy_books %>%
  count(word, sort = TRUE) 
```

```
## # A tibble: 13,914 × 2
##   word      n
##   <chr> <int>
## 1 miss   1855
## 2 time   1337
## 3 fanny   862
## 4 dear    822
## 5 lady    817
## # ℹ 13,909 more rows
```
…
```
## Joining with `by = join_by(word)`
```

```r
tidy_bronte %>%
  count(word, sort = TRUE)
```

```
## # A tibble: 15,328 × 2
##   word           n
##   <chr>      <int>
## 1 miss         439
## 2 heathcliff   421
## 3 time         372
## 4 sir          359
## 5 linton       346
## # ℹ 15,323 more rows
```
…
frequency
```

```
## # A tibble: 44,760 × 4
##   word    `Jane Austen` author          proportion
##   <chr>           <dbl> <chr>                <dbl>
## 1 a          0.00000919 Brontë Sisters  0.000121  
## 2 a          0.00000919 H.G. Wells      0.0000293 
## 3 abaht     NA          Brontë Sisters  0.00000934
## 4 abaht     NA          H.G. Wells     NA         
## 5 abandon   NA          Brontë Sisters  0.0000374 
## # ℹ 44,755 more rows
```
…
+ **AFINN** (−5…+5 numeric scores)
+ **bing** (binary: positive/negative)
+ **nrc** (binary: pos/neg + emotions: joy, anger, fear, trust, sadness, surprise, disgust, anticipation)

Get any lexicon:

```r
library(tidytext)
library(textdata)
library(dplyr)
get_sentiments("afinn")   # or "bing", "nrc"
```

```
## # A tibble: 2,477 × 2
##   word      value
##   <chr>     <dbl>
## 1 abandon      -2
## 2 abandoned    -2
## 3 abandons     -2
## 4 abducted     -2
## 5 abduction    -2
## # ℹ 2,472 more rows
```
…
## Joy words in *Emma* (NRC)

```r
nrc_joy <- get_sentiments("nrc") %>% filter(sentiment == "joy")

joy_counts <- tidy_books %>%
  filter(book == "Emma") %>%
  inner_join(nrc_joy, by = "word") %>%
  count(word, sort = TRUE)

head(joy_counts, 15)
```

```
## # A tibble: 15 × 2
##   word       n
##   <chr>  <int>
## 1 good     359
## 2 friend   166
## 3 hope     143
## 4 happy    125
## 5 love     117
## # ℹ 10 more rows
```
…
---

## Most influential words (Bing)

```r
bing_word_counts <- tidy_books %>%
  inner_join(get_sentiments("bing"), by = "word") %>%
  count(word, sentiment, sort = TRUE) %>%
  ungroup()

bing_word_counts
```

```
## # A tibble: 2,585 × 3
##   word  sentiment     n
##   <chr> <chr>     <int>
## 1 miss  negative   1855
## 2 well  positive   1523
## 3 good  positive   1380
## 4 great positive    981
## 5 like  positive    725
## # ℹ 2,580 more rows
```
…
austen_chapters <- austen_books() %>%
  group_by(book) %>%
  unnest_tokens(chapter, text, token = "regex",
                pattern = "Chapter|CHAPTER [\\dIVXLC]") %>%
  ungroup()
```
---

```r
austen_chapters %>% group_by(book) %>% summarise(chapters = n())
```

```
## # A tibble: 6 × 2
##   book                chapters
##   <fct>                  <int>
## 1 Sense & Sensibility       51
## 2 Pride & Prejudice         62
## 3 Mansfield Park            49
## 4 Emma                      56
## 5 Northanger Abbey          32
## # ℹ 1 more row
```
…
```r
most_neg_chapters <- neg_chapters %>%
  group_by(book) %>%
  slice_max(ratio, n = 1) 

most_neg_chapters
```

```
## # A tibble: 6 × 5
## # Groups:   book [6]
##   book                chapter negativewords words  ratio
##   <fct>                 <int>         <int> <int>  <dbl>
## 1 Sense & Sensibility      43           161  3405 0.0473
## 2 Pride & Prejudice        34           111  2104 0.0528
## 3 Mansfield Park           46           173  3685 0.0469
## 4 Emma                     15           151  3340 0.0452
## 5 Northanger Abbey         21           149  2982 0.0500
## # ℹ 1 more row
```
…
