Applied Data Analysis
…
```r
## switch from feet to meters
heights$elevation = heights$elevation * .3048
```
---
## Taking a look

```r
heights
```

```
## # A tibble: 50 × 2
##    elevation state      
##        <dbl> <chr>      
##  1      733. Alabama    
##  2     6168. Alaska     
##  3     3851. Arizona    
##  4      839. Arkansas   
##  5     4418. California 
##  6     4399. Colorado   
##  7      725. Connecticut
##  8      137. Delaware   
##  9      105. Florida    
## 10     1458. Georgia    
## # ℹ 40 more rows
```

---
## Taking another look

```r
arrange(heights, elevation)
```

```
## # A tibble: 50 × 2
##    elevation state       
##        <dbl> <chr>       
##  1      105. Florida     
##  2      137. Delaware    
##  3      163. Louisiana   
##  4      246. Mississippi 
##  5      247. Rhode Island
##  6      376. Illinois    
##  7      383. Indiana     
##  8      472. Ohio        
##  9      509. Iowa        
## 10      540. Missouri    
## # ℹ 40 more rows
```

---
## Taking another another look

```r
arrange(heights, desc(elevation))
```

```
## # A tibble: 50 × 2
##    elevation state     
##        <dbl> <chr>     
##  1     6168. Alaska    
##  2     4418. California
##  3     4399. Colorado  
##  4     4392. Washington
##  5     4207. Wyoming   
##  6     4205. Hawaii    
##  7     4123. Utah      
##  8     4011. New Mexico
##  9     4005. Nevada    
## 10     3901. Montana   
## # ℹ 40 more rows
```
…
---

## Dataset terminology

- Each row is an **observation**
- Each column is a **variable**

.small[

```r
starwars
```

```
## # A tibble: 87 × 14
##    name     height  mass hair_color skin_color eye_color birth_year sex   gender
##    <chr>     <int> <dbl> <chr>      <chr>      <chr>          <dbl> <chr> <chr> 
##  1 Luke Sk…    172    77 blond      fair       blue            19   male  mascu…
##  2 C-3PO       167    75 <NA>       gold       yellow         112   none  mascu…
##  3 R2-D2        96    32 <NA>       white, bl… red             33   none  mascu…
##  4 Darth V…    202   136 none       white      yellow          41.9 male  mascu…
##  5 Leia Or…    150    49 brown      light      brown           19   fema… femin…
##  6 Owen La…    178   120 brown, gr… light      blue            52   male  mascu…
##  7 Beru Wh…    165    75 brown      light      blue            47   fema… femin…
##  8 R5-D4        97    32 <NA>       white, red red             NA   none  mascu…
##  9 Biggs D…    183    84 black      light      brown           24   male  mascu…
## 10 Obi-Wan…    182    77 auburn, w… fair       blue-gray       57   male  mascu…
## # ℹ 77 more rows
## # ℹ 5 more variables: homeworld <chr>, species <chr>, films <list>,
## #   vehicles <list>, starships <list>
```
…
