Applied Data Analysis
…
book_words <- left_join(book_words, total_words)
```

```
## Joining with `by = join_by(book)`
```

```r
book_words
```

```
## # A tibble: 40,379 × 4
##   book           word      n  total
##   <fct>          <chr> <int>  <int>
## 1 Mansfield Park the    6206 160460
## 2 Mansfield Park to     5475 160460
## 3 Mansfield Park and    5438 160460
## # ℹ 40,376 more rows
```
…
 > The frequency of a word is inversely proportional to its rank.

 This relationship is common in natural language corpora.

```r
freq_by_rank <- book_words %>%
  group_by(book) %>%
  mutate(rank = row_number(),
         term_frequency = n/total)
freq_by_rank
```

```
## # A tibble: 40,379 × 6
## # Groups:   book [6]
##   book           word      n  total  rank term_frequency
##   <fct>          <chr> <int>  <int> <int>          <dbl>
## 1 Mansfield Park the    6206 160460     1         0.0387
## 2 Mansfield Park to     5475 160460     2         0.0341
## 3 Mansfield Park and    5438 160460     3         0.0339
## # ℹ 40,376 more rows
```
…
### Computing the tf-idf

Use `bind_tf_idf()` from `tidytext`.

```r
book_tf_idf <- book_words %>%
  bind_tf_idf(word, book, n)

# Inspect the tf-idf
book_tf_idf %>%
  arrange(desc(tf_idf))
```

```
## # A tibble: 40,379 × 7
##   book                word         n  total      tf   idf  tf_idf
##   <fct>               <chr>    <int>  <int>   <dbl> <dbl>   <dbl>
## 1 Sense & Sensibility elinor     623 119957 0.00519  1.79 0.00931
## 2 Sense & Sensibility marianne   492 119957 0.00410  1.79 0.00735
## 3 Mansfield Park      crawford   493 160460 0.00307  1.79 0.00551
## # ℹ 40,376 more rows
```
…
physics_words <- physics %>%
  unnest_tokens(word, text) %>%
  count(author, word, sort = TRUE)
```

---

```r
physics_words
```

```
## # A tibble: 12,668 × 3
##   author              word      n
##   <chr>               <chr> <int>
## 1 Galilei, Galileo    the    3760
## 2 Tesla, Nikola       the    3604
## 3 Huygens, Christiaan the    3553
## # ℹ 12,665 more rows
```
…
<img src="5_week_e_files/figure-html/unnamed-chunk-13-1.png" width="40%" style="display: block; margin: auto;" />
---
--- 

```r
library(stringr)

physics %>% 
  filter(str_detect(text, "_k_")) %>% 
  select(text)
```

```
## # A tibble: 7 × 1
##   text                                                                
##   <chr>                                                               
## 1 surface AB at the points AK_k_B. Then instead of the hemispherical  
## 2 would needs be that from all the other points K_k_B there should    
## 3 necessarily be equal to CD, because C_k_ is equal to CK, and C_g_ to
## # ℹ 4 more rows
```
…
```r
library(dplyr)
library(tidytext)
library(janeaustenr)

austen_bigrams <- austen_books() %>%
  unnest_tokens(bigram, text, token = "ngrams", n = 2) %>%
  filter(!is.na(bigram))

head(austen_bigrams, 5)
```

```
## # A tibble: 5 × 2
##   book                bigram         
##   <fct>               <chr>          
## 1 Sense & Sensibility sense and      
## 2 Sense & Sensibility and sensibility
## 3 Sense & Sensibility by jane        
## # ℹ 2 more rows
```

> Still tidy: one token per row, with metadata (e.g., book) preserved.

---
### Count the most common n-gram

```r
austen_bigrams %>%
  count(bigram, sort = TRUE)
```

```
## # A tibble: 193,209 × 2
##   bigram     n
##   <chr>  <int>
## 1 of the  2853
## 2 to be   2670
## 3 in the  2221
## # ℹ 193,206 more rows
```

```r
head(austen_bigrams, 5)
```

```
## # A tibble: 5 × 2
##   book                bigram         
##   <fct>               <chr>          
## 1 Sense & Sensibility sense and      
## 2 Sense & Sensibility and sensibility
## 3 Sense & Sensibility by jane        
## # ℹ 2 more rows
```
…
### Trigrams **n=3**.

```r
austen_books() %>%
  unnest_tokens(trigram, text, token = "ngrams", n = 3) %>%
  filter(!is.na(trigram)) %>%
  separate(trigram, c("word1", "word2", "word3"), sep = " ") %>%
  filter(!word1 %in% stop_words$word,
         !word2 %in% stop_words$word,
         !word3 %in% stop_words$word) %>%
  count(word1, word2, word3, sort = TRUE)
```

```
## # A tibble: 6,140 × 4
##   word1 word2     word3         n
##   <chr> <chr>     <chr>     <int>
## 1 dear  miss      woodhouse    20
## 2 miss  de        bourgh       17
## 3 lady  catherine de           11
## # ℹ 6,137 more rows
```

---

### Analyzing bigrams

```r
bigrams_filtered %>%
  filter(word2 == "street") %>%
  count(book, word1, sort = TRUE)
```

```
## # A tibble: 33 × 3
##   book                word1        n
##   <fct>               <chr>    <int>
## 1 Sense & Sensibility harley      16
## 2 Sense & Sensibility berkeley    15
## 3 Northanger Abbey    milsom      10
## # ℹ 30 more rows
```

---
### TF-IDF on bigrams 

```r
bigram_tf_idf <- bigrams_united %>%
  count(book, bigram) %>%
  bind_tf_idf(bigram, book, n) %>%
  arrange(desc(tf_idf))

bigram_tf_idf
```

```
## # A tibble: 31,391 × 6
##   book           bigram                n     tf   idf tf_idf
##   <fct>          <chr>             <int>  <dbl> <dbl>  <dbl>
## 1 Mansfield Park sir thomas          266 0.0304  1.79 0.0545
## 2 Persuasion     captain wentworth   143 0.0290  1.79 0.0519
## 3 Mansfield Park miss crawford       196 0.0224  1.79 0.0402
## # ℹ 31,388 more rows
```
…
> Using bigrams for sentiment context. Problem with simple lexicon counts: ignores negation. Example: “not happy” should reverse sentiment.

---

### Find 'not X' bigrams 

```r
bigrams_separated %>%
  filter(word1 == "not") %>%
  count(word1, word2, sort = TRUE)
```

```
## # A tibble: 1,178 × 3
##   word1 word2     n
##   <chr> <chr> <int>
## 1 not   be      580
## 2 not   to      335
## 3 not   have    307
## # ℹ 1,175 more rows
```
…
### Compute pairwise correlations in R

```r
library(widyr)
word_cors <- austen_section_words %>%
  group_by(word) %>%
  filter(n() >= 20) %>%            # focus on common words
  pairwise_cor(word, section, sort = TRUE)

word_cors
```

```
## # A tibble: 154,842 × 3
##   item1  item2    correlation
##   <chr>  <chr>          <dbl>
## 1 bourgh de             0.951
## 2 de     bourgh         0.951
## 3 pounds thousand       0.701
## # ℹ 154,839 more rows
```

```r
word_cors %>%
  filter(item1 == "pounds")
```

```
## # A tibble: 393 × 3
##   item1  item2    correlation
##   <chr>  <chr>          <dbl>
## 1 pounds thousand       0.701
## 2 pounds ten            0.231
## 3 pounds fortune        0.164
## # ℹ 390 more rows
```
…
